Joss: Ahora si, pongámonos de acuerdo acá(?) Falta la base de datos, pero ahora ya puedes clonar el repositorio en algún lugar y empezar a trabajar tranquilamente. Tendremos una hora más el día de mañana, así que bien podríamos investigar en la noche o subir alguno de nuestros proyectos JSP a un repositorio y venir a washarlo acá xDDD


Kevin:Hola, ya subi todo al nuevo repositorio, excepto los Dao entero, no se si comentarlos (?)
Ahora haré los DAO






























---------
--------------
----------------------
----------------------------
---------------------------------
--------------------------------------------------------------------------------------


Conexion


----------------------------------------------------------------------------------------
------------------------------------
-----------------------------
-----------------------
---------------
-----------
package DAO;

import java.sql.Connection;
import java.sql.DriverManager;
import java.sql.SQLException;

public class Conexion {

    Connection con = null;
    private String bd = "Equipo";
    private String user = "root";
    private String pass = "root";
    private String url = "jdbc:mysql://localhost:3306/" + bd + "?useSSL=false";

    public Conexion() {
        try {
            Class.forName("com.mysql.jdbc.Driver");
            con = DriverManager.getConnection(url, user, pass);
            if (con != null) {
                System.out.println("Exito en conexion");
            }
        } catch (ClassNotFoundException | SQLException e) {
            System.out.println("Error de conexion");
            System.out.println("Error en: " + e);
        }
    }

    public Connection conectar() {
        return con;
    }

    public void desconectar() {
        try {
            con.close();
        } catch (SQLException e) {
            System.out.println("Error al desconectar");
            System.out.println("Error en: " + e);
        }
    }
}


---------
--------------
----------------------
----------------------------
---------------------------------
--------------------------------------------------------------------------------------


TEST


----------------------------------------------------------------------------------------
------------------------------------
-----------------------------
-----------------------
---------------
-----------


package conexion;

import conexion.conexion;

public class test {

    public static void main(String[] args) {
        conexion cn = new conexion();
        try {
            cn.conectar();
        } catch (Exception e) {
        }
    }

}



---------
--------------
----------------------
----------------------------
---------------------------------
--------------------------------------------------------------------------------------


DAO


----------------------------------------------------------------------------------------
------------------------------------
-----------------------------
-----------------------
---------------
-----------
package dao;

import conexion.conexion;
import java.sql.PreparedStatement;
import java.sql.ResultSet;
import java.sql.SQLException;
import java.util.LinkedList;
import java.util.List;
import modelo.UsuariosBean;

public class UsuariosDao {

    conexion con;
// Se importa la Conexion y se le da la variable con, luego se usa el metodo constructor

    public UsuariosDao(conexion con) {
        this.con = con;
    }

// Hacemos un public boolean, que sera nuestro metodo de insertar, dentro de este, tendremos entre parentesis
// nuestro Bean, a la cual le otrogaremos una variable.
    public boolean insertar(UsuariosBean usub) {
// Dentro haremos un Try/Catch, y dentro de esa consulta, en el Try pondremos el String de SQL para nuestro 
// metodo de insertar, el cual esta compuesto por el "Insert into -Nombre de nuestra tabla en mysql- y 
// los valores que existen dentro, en este caso es el id y el primer valor del nombre, se especifica si son 
// tipo Int o String, tambien se pone Id si a este le pusimos Not null en la BD.
        try {
            String sql = "insert into usuarios values (?,?,?,?,?,?,?);";
            //Crearemos un prepared Statement de tipo SQL que llamara a la conexion (Esto se aplicara en todos los metodos).
            PreparedStatement ps = con.conectar().prepareStatement(sql);
            //Se insertaran los valores de nuestra tabla, llevaran un orden que es por la columna en que estan ubicados
            //en la consulta (Se especifica si son tipo Int o String.
            ps.setInt(1, usub.getId_usuarios());
            ps.setString(2, usub.getNombre());
            ps.setString(3, usub.getApellido());
            ps.setString(4, usub.getCorreo());
            ps.setString(5, usub.getDireccion());
            ps.setString(6, usub.getEdad());
            ps.setString(7, usub.getUsuario());
            ps.setString(8, usub.getPass());
            //No se debe olvidar hacer nuestro Execute Update y un return true.
            ps.executeUpdate();
            return true;
        } catch (SQLException e) {
            //Haremos el Catch como SQLException, se importara como un archivo sql arriba, y dentro pondremos dos
            //valores de impresion, error al Insertar en el Dao, para saber donde esta especificamente el error 
            //y tambien si tuvimos error en e, esto se hace concatenando.
            System.out.println("Error en DAO Insertar");
            System.out.println("Error en" + e);
            return false;
        }
    }

    /* Hacemos un public boolean, que sera nuestro metodo de actualizar, dentro de este, tendremos entre parentesis
     nuestro Bean, a la cual le otrogaremos una variable, de preferencia que en todo metodo sean iguales.*/
    public boolean actualizar(UsuariosBean usub) {
        try {
            /*Igualmente, meteremos todo el proceso dentro del Try Catch igual que en el metodo insertar
            En este caso, usaremos la String SQL, pero aqui pondremos "Update -Nombre de nuestra tabla en mysql-
            set -Primer campo de la tabla-=?" y así sucesivamente, hasta que se terminan los campos, y por
            Ultimo pondremos nuestro id de la siguiente forma: "Where id=?" Solo que se dejara el id tal como lo 
            pusimos en la BD.*/
            String sql = "update usuarios set nombre=?,apellido=?,correo=?,direccion=?,edad=?,usuario=?,pass=? where id_usuarios=?";
            //Crearemos un prepared Statement de tipo SQL que llamara a la conexion (Esto se aplicara en todos los metodos).
            PreparedStatement ps = con.conectar().prepareStatement(sql);
            //Se insertaran los valores de nuestra tabla, en este caso, se colocaran en el orden la consulta, dejando
            //el ID para el final.
            ps.setString(1, usub.getNombre());
            ps.setString(2, usub.getApellido());
            ps.setString(3, usub.getCorreo());
            ps.setString(4, usub.getDireccion());
            ps.setString(5, usub.getEdad());
            ps.setString(6, usub.getUsuario());
            ps.setString(7, usub.getPass());
            ps.setInt(8, usub.getId_usuarios());
            //No se debe olvidar hacer nuestro Execute Update y un return true.
            ps.executeUpdate();
            return true;
        } catch (SQLException e) {
            //Haremos el Catch como SQLException, se importara como un archivo sql arriba, y dentro pondremos dos
            //valores de impresion, error al Actualizar en el Dao, para saber donde esta especificamente el error 
            //y tambien si tuvimos error en e, esto se hace concatenando.
            System.out.println("Error en DAO Actualizar");
            System.out.println("Error en" + e);
            return false;
        }
    }

    //Ahora crearemos el metodo eliminar, el cual es un poco distinto de los anteriores
    //En el boolean, al final colocarmos un "INT" la razón de esto es porque al mandar a eliminar desde el Servlet
    //y en la consulta, se manda a eliminar el ID, el cual es de tipo numerico (INT) se elimina toda la fila donde
    //esta ubicado ese ID, por ende es de tipo int para seleccionar ese ID a eliminar, por eso dentro de este metodo
    //No se especifica los demas campos, solo el ID
    public boolean eliminar(int UsuarioBean) {
        try {
            //En este String SQL, se especifica que se quiere eliminar toda la fila que tenga cierto ID especificado
            //Eso significa todos los campos que esten en la fila donde este el ID especificado
            String sql = "delete from usuarios where id_usuarios=?";
            //Crearemos un prepared Statement de tipo SQL que llamara a la conexion (Esto se aplicara en todos los metodos).
            PreparedStatement ps = con.conectar().prepareStatement(sql);
            //Ahora solo importaremos el ID, ya que las filas que contengan cierto ID seran las que se van a 
            //eliminar completamente.
            ps.setInt(1, UsuarioBean);
            ps.executeUpdate();
            return true;
        } catch (SQLException e) {
            //Haremos el Catch como SQLException, se importara como un archivo sql arriba, y dentro pondremos dos
            //valores de impresion, error al Eliminar en el Dao, para saber donde esta especificamente el error 
            //y tambien si tuvimos error en e, esto se hace concatenando.
            System.out.println("Error en DAO Eliminar");
            System.out.println("Error en" + e);
            return false;
        }
    }

    //Ahora haremos el metodo de consultar o Leer, que mostrara los datos en las tablas para que posteriormente
    //pasemos a modificar o eliminar.
    //En este metodo insertaremos la List o ArrayList y dentro de esa lista, pondremos el Bean o Modelo de la
    //tabla que seleccionamos, y fuera de la list, especificamos que este metodo sera el consultar y de nuevo 
    //colocamos el modelo bean y le otorgamos una variable con la cual la identificaremos, de preferencia que
    //sea siilar a las anteriorer
    public List<UsuariosBean> consultar() {
        try {
            //Dentro de esta String pondremos nuestra consulta que muestra nuestra tabla, si la tabla es sola,
            //solo bastará con poner un "Select * from -Tabla seleccionada-* Pero si una tabla relacionada,
            //en ese caso usaremos el select -Campos de esa tabla y de las otras tablas relacionadas- from -Tabla
            //Seleccionada y la variable de la respectiva tabla- más un inner join.
            String sql = "select nin.id_nino, nin.nombre_nino, nin.apellido_nino, nin.direccion_nino, nin.disponibilidad, apo.nombre_apoderado,apo.apellido_apoderado from nino nin\n"
                    + "inner join apoderado apo on nin.id_apoderado = apo.id_apoderado order by id_nino";
            //Ahora llamamos nuevamente a nuestra lista y le damos la variable que queramos, en este caso es
            //"lista" y que esa variable sea igual a la LinkedList. LinkedList es un tipo de lista que va y 
            //retorna, por eso se convierte de List a LinkedList
            List<UsuariosBean> lista = new LinkedList();
            PreparedStatement ps = con.conectar().prepareStatement(sql);
            // Ahora importamos un ResultSet para que muestre los resultados de nuestra consulta, esto se logra
            //haciendo que nuestro ResultSet se ejecute de la forma 
            ResultSet rs = ps.executeQuery();
            //Haremos un While y que sea igual a ResultSet.Next para que este pueda pasar entre cada valor de la
            //lista que esta dentro de ella.
            //Mucho ojo de no importar el ID dentro del while, ya que puede causar problemas
            while (rs.next()) {
                //Si no se ha creado el constructor, dará error el usuarioBean
                UsuariosBean usub = new UsuariosBean(0);
                usub = new UsuariosBean(rs.getInt(1));
                usub.setNombre(rs.getString(2));
                usub.setApellido(rs.getString(3));
                lista.add(usub);
            }
            //Aqui en vez de un return true, haremos un return lista
            return lista;
        } catch (SQLException e) {
            //Haremos el Catch como SQLException, se importara como un archivo sql arriba, y dentro pondremos dos
            //valores de impresion, error al Consultar en el Dao, para saber donde esta especificamente el error 
            //y tambien si tuvimos error en e, esto se hace concatenando.
            System.out.println("Error en DAO Consultar");
            System.out.println("Error en" + e);
            //Aqui se dara un retorno nulo
            return null;
        }
    }
    //Ahora haremos el metodo de consultarID o LeerID, que mostrara los datos en las tablas para que posteriormente
    //pasemos a modificar o eliminar.
    //En este metodo las cosas seran practicamente igual que el anterior, exceptuando la consulta.

    public List<TurnoBean> consultarId(TurnoBean turb) {
        try {
            //Aqui se hara la String SQL que será "Select * from -Tabla seleccionada- where -Id de la tabla 
            //seleccionada-=?" 
            String sql = "select nin.id_nino, nin.nombre_nino, nin.apellido_nino, nin.direccion_nino, nin.disponibilidad, apo.nombre_apoderado,apo.apellido_apoderado, apo.id_apoderado from nino nin\n"
                    + "inner join apoderado apo on nin.id_apoderado = apo.id_apoderado where id_nino=?;";
            List<TurnoBean> lista = new LinkedList();
            PreparedStatement ps = con.conectar().prepareStatement(sql);
                        //Y aqui se agrega el ID
            ps.setInt(1, turb.getId_turno());
            ResultSet rs = ps.executeQuery();
            //Los campos aqui deben de ser los mismos campos que en la base de datos, se omite el ID y se pone
            //el Bean, si se ponen 3 campos y la base de datos tiene solo 2, dara error 
            while (rs.next()) {
                turb = new TurnoBean(rs.getInt(1));
                turb.setTurno(rs.getString(2));
                lista.add(turb);
            }
            return lista;
        } catch (SQLException e) {
            //Haremos el Catch como SQLException, se importara como un archivo sql arriba, y dentro pondremos dos
            //valores de impresion, error al Consultar en el Dao, para saber donde esta especificamente el error 
            //y tambien si tuvimos error en e, esto se hace concatenando.
            System.out.println("Error en DAO ConsultarID");
            System.out.println("Error en" + e);
            //Aqui se dara un retorno nulo
            return null;
        }
    }

}

}

---------
--------------
----------------------
----------------------------
---------------------------------
--------------------------------------------------------------------------------------


CONTROLLER SERVLET


----------------------------------------------------------------------------------------
------------------------------------
-----------------------------
-----------------------
---------------
-----------
package servlet;

import java.io.IOException;
import java.io.PrintWriter;
import conexion.conexion;
import dao.ApoderadoDao;
import javax.servlet.ServletException;
import javax.servlet.http.HttpServlet;
import javax.servlet.http.HttpServletRequest;
import javax.servlet.http.HttpServletResponse;
import dao.NinoDao;
import java.util.List;
import javax.servlet.RequestDispatcher;
import modelo.NinoBean;

public class NinoServlet extends HttpServlet {

    conexion con;
    NinoDao ninDAO;
    NinoBean ninb;
    RequestDispatcher rd;
    String msg;
    boolean respuesta;

    protected void processRequest(HttpServletRequest request, HttpServletResponse response)
            throws ServletException, IOException {
        String action = request.getParameter("action");

        switch (action) {
            case "insertar":
                insertar(request, response);
                break;
            case "actualizar":
                actualizar(request, response);
                break;
            case "leer":
                consultar(request, response);
                break;
            case "leerId":
                consultarId(request, response);
                break;
            case "borrar":
                eliminar(request, response);
                break;
            case "nuevo":
                nuevo(request, response);
                break;
            default:
                msg = "Error de action";
                request.setAttribute(msg, msg);
                consultar(request, response);
                break;
        }

    }

    protected void insertar(HttpServletRequest request, HttpServletResponse response)
            throws ServletException, IOException {

        String nombre_nino = request.getParameter("nombre_nino");
        String apellido_nino = request.getParameter("apellido_nino");
        String direccion_nino = request.getParameter("direccion_nino");
        String disponibilidad = request.getParameter("disponibilidad");
        int id_apoderado = Integer.parseInt(String.valueOf(request.getParameter("id_apoderado")));

        NinoBean ninb = new NinoBean(0);
        con = new conexion();

        ninb.setNombre_nino(nombre_nino);
        ninb.setApellido_nino(apellido_nino);
        ninb.setDireccion_nino(direccion_nino);
        ninb.setDisponibilidad(disponibilidad);

        ninb.setId_apoderado(id_apoderado);

        ninb.setId_nino(0);
        //Aqui llamaremos el Dao
        ninDAO = new NinoDao(con);
        //La respuesta sera el campo necesario para
        respuesta = ninDAO.insertar(ninb);
        if (respuesta) {
            msg = "Datos Insertados";
        } else {
            msg = "Error al Insertar";
        }
        List<NinoBean> list = ninDAO.consultar();
        request.setAttribute("msg", msg);
        request.setAttribute("list", list);
        rd = request.getRequestDispatcher("/nino/catalogonino.jsp");
        rd.forward(request, response);
    }

    protected void actualizar(HttpServletRequest request, HttpServletResponse response)
            throws ServletException, IOException {
        int id_nino = Integer.parseInt(String.valueOf(request.getParameter("id_nino")));
        String nombre_nino = request.getParameter("nombre_nino");
        String apellido_nino = request.getParameter("apellido_nino");
        String direccion_nino = request.getParameter("direccion_nino");
        String disponibilidad = request.getParameter("disponibilidad");
        int id_apoderado = Integer.parseInt(String.valueOf(request.getParameter("id_apoderado")));

        NinoBean ninb = new NinoBean(0);

        con = new conexion();
        ninb.setNombre_nino(nombre_nino);
        ninb.setApellido_nino(apellido_nino);
        ninb.setDireccion_nino(direccion_nino);
        ninb.setDisponibilidad(disponibilidad);
        ninb.setId_apoderado(id_apoderado);
        ninb.setId_nino(id_nino);
        ninDAO = new NinoDao(con);
        //Se manda a llamar a la accion, actualizar, del DAO, esta funcion servira para poder llamar al actualizar en la vista.
        respuesta = ninDAO.actualizar(ninb);
        if (respuesta) {
            msg = "Datos Actualizados";
        } else {
            msg = "Error al actualizar";
        }
        //Aqui se manda a llamar a la lista y el DAO, el cual contiene el metodo de consultar, se usa el consultar
        //Para que cuando se actualize, p
        List<NinoBean> list = ninDAO.consultar();
        request.setAttribute("msg", msg);
        request.setAttribute("list", list);
        //Igual que en el insertar, se debe de redireccionar al catalgo para ver los cambios realizados luegos
        //de actualizar.
        rd = request.getRequestDispatcher("/nino/catalogonino.jsp");
        rd.forward(request, response);
    }

    protected void consultar(HttpServletRequest request, HttpServletResponse response)
            throws ServletException, IOException {
        //En este consultar hacemos los mismos pasos que en los demas metodos, llamar a la conexion, el bean y el Dao
        con = new conexion();
        ninb = new NinoBean(0);
        ninDAO = new NinoDao(con);
        //Luego de importar todas las clases ahora importamos la lista
        //En esta lista, llamamos el DAO, y su metodo consultar
        //Y que llamara a los datos del bean
        List<NinoBean> list = ninDAO.consultar();
        request.setAttribute("list", list);
        request.setAttribute("msg", msg);
        rd = request.getRequestDispatcher("/nino/catalogonino.jsp");
        rd.forward(request, response);
    }

    protected void consultarId(HttpServletRequest request, HttpServletResponse response)
            throws ServletException, IOException {
        con = new conexion();
        //llamamos ID, y lo parseamos
        int id_nino = Integer.parseInt(String.valueOf(request.getParameter("id_nino")));
        //de nuevo llamamos a las demas clases, y de los campos de nuestra tabla solo al ID
        //El ID y el Bean pueden tener el mismo parametro que en este caso le puse "id_..." 
        ninb = new NinoBean(0);
        ninb.setId_nino(id_nino);
        ninDAO = new NinoDao(con);
                ApoderadoDao apoDAO = new ApoderadoDao(con);
        //De nuevo llamamos a la lista
        List<NinoBean> list = ninDAO.consultarID(ninb);
        request.setAttribute("list", list);
        request.setAttribute("msg", msg);
                request.setAttribute("apoderadoDao", apoDAO.consultar() );
        rd = request.getRequestDispatcher("/nino/actualizarnino.jsp");
        rd.forward(request, response);
    }

    protected void eliminar(HttpServletRequest request, HttpServletResponse response)
            throws ServletException, IOException {
        con = new conexion();
        int id_nino = Integer.parseInt(String.valueOf(request.getParameter("id_nino")));
        ninb = new NinoBean(id_nino);
        ninDAO = new NinoDao(con);
        respuesta = ninDAO.eliminar(id_nino);
        if (respuesta) {
            msg = "Datos eliminados";
        } else {
            msg = "Error al eliminar";
        }
        List<NinoBean> list = ninDAO.consultar();
        request.setAttribute("list", list);
        request.setAttribute("msg", msg);
        rd = request.getRequestDispatcher("/nino/catalogonino.jsp");
        rd.forward(request, response);
    }

    protected void nuevo(HttpServletRequest request, HttpServletResponse response)
            throws ServletException, IOException {
        con = new conexion();
        ninb = new NinoBean(0);
        ninDAO = new NinoDao(con);
        ApoderadoDao apoDAO = new ApoderadoDao(con);
        List<NinoBean> list = ninDAO.consultar();
        request.setAttribute("list", list);
        request.setAttribute("msg", msg);
        request.setAttribute("apoderadoDao", apoDAO.consultar() );
        rd = request.getRequestDispatcher("/nino/insertarnino.jsp");
        
        rd.forward(request, response);

    }


    @Override
    protected void doGet(HttpServletRequest request, HttpServletResponse response)
            throws ServletException, IOException {
        processRequest(request, response);
    }

    @Override
    protected void doPost(HttpServletRequest request, HttpServletResponse response)
            throws ServletException, IOException {
        processRequest(request, response);
    }

}



---------
--------------
----------------------
----------------------------
---------------------------------
--------------------------------------------------------------------------------------


VISTA CATALOGO


----------------------------------------------------------------------------------------
------------------------------------
-----------------------------
-----------------------
---------------
-----------


<%-- 
    Document   : catalogonino
    Created on : 12-06-2019, 01:15:15 PM
    Author     : kevin.pazusam
--%>


<%-- Aqui al agregar un c:ForEach Items, se nos tiene que agregar este taglib, de lo contrario nunca nos mostrara la lista --%>
<%@ taglib prefix="c" uri="http://java.sun.com/jsp/jstl/core" %>
<%@page contentType="text/html" pageEncoding="UTF-8"%>
<%--Aqui se agregan todas las etiquetas de bootstrap, o las necesarias que se utilizaran, para que se importe correctamente--%>
<link href="resources/css/bootstrap.css" rel="stylesheet" type="text/css"/>
<script src="resources/js/bootstrap.min.js" type="text/javascript"></script>
<script src="resources/js/jquery-3.4.1.js" type="text/javascript"></script>
<script src="resources/js/bootstrap.js" type="text/javascript"></script>
<link href="https://fonts.googleapis.com/css?family=Bebas+Neue&display=swap" rel="stylesheet">
<!DOCTYPE html>
<html>
    <head>
        <meta http-equiv="Content-Type" content="text/html; charset=UTF-8">
        <%-- Este sera el titulo de la pagina que nos va a mostrar en la barra superior de nuestro navegador, como pestaña --%>
        <title>Catálogo Minibuses</title>
    </head>
    <%-- Aqui empieza el body que es toda la parte visible de la pagina, en este caso dentro del body se ha puesto un background que recubre toda la pagina, asi que se sale
    del container y se ajusta al tamaño de la pantalla mediante un background-size cover. --%>
    <body background="img/nino.png" style="background-size: cover;">
            <jsp:include  page="/navbar_rojo.jsp" />

        <div class="container-fluid">
            <center>
                <label style="color: white ;font-size:60px;font-family: 'Bebas Neue', cursive;" > Catálogo de Niños </label>
            </center>
            <%-- Inicio de la tabla --%>
            <div class="row">
                <table border="1" class="table table-striped" >
                    <%-- Cabecera --%>
                    <thead class="thead-dark">
                        <tr>
                    <th>Identificador de Niño</th>
                    <th>Nombre del Niño</th>
                    <th>Direccion</th>
                    <th>Disponibilidad del padre</th>
                    <th>Nombre del padre</th>

                    <th>Eliminar</th>
                    <th>Actualizar</th>
                    </tr>
                    </thead>
                    <%-- Cuerpo principal de la tabla, donde se muestra cada dato insertado en la tabla, para esto es necesario agregar el c:forEach Items
                    y dentro de los items poner el "${list}" porque llama a la lista que colocamos en nuestro servlet y dao, tambien es necesario agregarle
                    una variable, en este caso es opcional pero es mas recomendable manejar la misma variable usada en el dao y servlet. 
                    Posteriormente utilizar cada campo que se desea mostrar en la table, que sean los mismo utilizados en el bean.--%>
                    <tbody >
                        <c:forEach items="${list}" var="ninb">
                            <tr>
                                <td>${ninb.id_nino}</td>                                
                                <td>${ninb.nombre_nino} ${ninb.apellido_nino}</td>
                                <td>${ninb.direccion_nino}</td>
                                <td>${ninb.disponibilidad}</td>
                                <td>${ninb.nombre_apoderado} ${ninb.apellido_apoderado}</td>
                                <%--Aqui se deben agregar los botones de Eliminar y Modificar/Actualizar, debido a que si se agregan en otra parte, no reconocera
                                el ID del campo que se desea modificar
                                Asegurarse que llame a la accion de cada funcion, en el caso de eliminar es borrar, y en el caso de actualizar leerId
                                y que seleccione al ID de la fila seleccionado ocupando el "&" para concatenar y llamar al ID, luego se llama al item de la lista 
                                que seria el mismo id en este caso tambien, utilizando la variable claro.--%>
                                <td><a class="btn" href="NinoServlet?action=borrar&id_nino=${ninb.id_nino}" style="color: #66ffff">Eliminar</a></td>
                                <td><a class="btn" href="NinoServlet?action=leerId&id_nino=${ninb.id_nino}" style="color: #66ffff">Actualizar</a></td>
                            </tr>
                        </c:forEach>
                    </tbody>
                </table>
            </div>
            <%-- Boton de Agregar/Insertar --%>
            <a class="btn btn-dark  btn-lg btn-block" style="opacity: 80%" href="NinoServlet?action=nuevo" role="button">Nuevo</a>
            ${msg}
        </div>
    </body>
</html>


---------
--------------
----------------------
----------------------------
---------------------------------
--------------------------------------------------------------------------------------


ACTUALIZAR VISTA


----------------------------------------------------------------------------------------
------------------------------------
-----------------------------
-----------------------
---------------
-----------
<%-- 
    Document   : actualizarnino
    Created on : 12-06-2019, 02:20:58 PM
    Author     : kevin.pazusam
--%>

<%@ taglib prefix="c" uri="http://java.sun.com/jsp/jstl/core" %>
<%@page contentType="text/html" pageEncoding="UTF-8"%>
<!DOCTYPE html>
<html>
    <head>
        <meta http-equiv="Content-Type" content="text/html; charset=UTF-8">
        <title>Actualizar</title>
        <link href="resources/css/bootstrap.css" rel="stylesheet" type="text/css"/>
        <script src="resources/js/bootstrap.min.js" type="text/javascript"></script>
        <script src="resources/js/jquery-3.4.1.js" type="text/javascript"></script>
        <script src="resources/js/bootstrap.js" type="text/javascript"></script>
        <link href="https://fonts.googleapis.com/css?family=Bebas+Neue&display=swap" rel="stylesheet">
        <link href="https://fonts.googleapis.com/css?family=Oswald&display=swap" rel="stylesheet">

    </head>

    <body background="img/nino.png" style="background-size: cover;">
            <jsp:include  page="/navbar_rojo.jsp" />



        <div class="container">
            <center>
                <label style="color:darkslateblue;font-size:60px;font-family: 'Bebas Neue', cursive;" > Actualizar </label>
            </center>
            <c:forEach items="${list}" var="ninb">
                <form method="post" action="NinoServlet?action=actualizar&id_nino=${ninb.getId_nino()}">
                    <div class="row">
                        <div class="col-6">
                            <center> <label style="color:#000000 ;font-size:40px;font-family: 'Bebas Neue', cursive;" >Nombre Niño:</label></center>

                        </div>

                        <div class="col-6">
                            <input name="nombre_nino" value="${ninb.getNombre_nino()}" type="text" required="true" style="border-radius: 10px;color:#007bff ;font-size:30px;font-family: 'Oswald', sans-serif;background-color: #002752;align-content: ">
                        </div>
                    </div>


                    <div class="row">
                        <div class="col-6">
                            <center> <label style="color:#000000 ;font-size:40px;font-family: 'Bebas Neue', cursive;" >Apellido Niño:</label></center>

                        </div>

                        <div class="col-6">
                            <input name="apellido_nino" value="${ninb.getApellido_nino()}" type="text" required="true" style="border-radius: 10px;color:#007bff ;font-size:30px;font-family: 'Oswald', sans-serif;background-color: #002752;align-content: ">
                        </div>
                    </div>


                    <div class="row">
                        <div class="col-6">
                            <center> <label style="color:#000000 ;font-size:40px;font-family: 'Bebas Neue', cursive;" >Dirección:</label></center>

                        </div>

                        <div class="col-6">
                            <input name="direccion_nino" value="${ninb.getDireccion_nino()}" type="text" required="true" style="border-radius: 10px;color:#007bff ;font-size:30px;font-family: 'Oswald', sans-serif;background-color: #002752;align-content: ">
                        </div>
                    </div>


                    <div class="row">
                        <div class="col-6">
                            <center> <label style="color:#000000 ;font-size:40px;font-family: 'Bebas Neue', cursive;" >Disponibilidad del Apoderado: </label></center>

                        </div>

                        <div class="col-6">
                            <input name="disponibilidad" value="${ninb.getDisponibilidad()}" type="text" required="true" style="border-radius: 10px;color:#007bff ;font-size:30px;font-family: 'Oswald', sans-serif;background-color: #002752;align-content: ">
                        </div>
                    </div>


                    <div class="row">

                        <div class="col-6">
                            <center> <label style="color:#000000 ;font-size:40px;font-family: 'Bebas Neue', cursive;" >Padre:</label></center>
                        </div>

                        <div class="col-6">
                            <select style="border-radius: 10px;color:white ;font-size:30px;font-family: 'Oswald', sans-serif;background-color: black;align-content: " name="id_apoderado" >
                                <c:forEach items="${apoderadoDao}" var="apo">
                                    <option value="${apo.id_apoderado}" style="background-color: black;color: white">
                                        ${apo.nombre_apoderado}
                                        ${apo.apellido_apoderado}
                                    </option>
                                </c:forEach>
                            </select>
                        </div>

                    </div>



                    <div class="row">

                        <input class="btn btn-dark  btn-lg btn-block" type="submit" name="actualizar" value="Actualizar">

                    </div>

                </form>

            </c:forEach>

        </div>
    </body>
</html>


---------
--------------
----------------------
----------------------------
---------------------------------
--------------------------------------------------------------------------------------


INSERTAR VISTA


----------------------------------------------------------------------------------------
------------------------------------
-----------------------------
-----------------------
---------------
-----------



<%-- 
    Document   : insertarnino
    Created on : 12-06-2019, 02:20:22 PM
    Author     : kevin.pazusam
--%>


<%@ taglib prefix="c" uri="http://java.sun.com/jsp/jstl/core" %>
<%@page contentType="text/html" pageEncoding="UTF-8"%>
<!DOCTYPE html>
<html>
    <head>
        <meta http-equiv="Content-Type" content="text/html; charset=UTF-8">
        <title>Insertar</title>
        <link rel="stylesheet" href="css/bootstrap.css"/>
        <link href="resources/css/bootstrap.css" rel="stylesheet" type="text/css"/>
        <script src="resources/js/bootstrap.min.js" type="text/javascript"></script>
        <script src="resources/js/jquery-3.4.1.js" type="text/javascript"></script>
        <script src="resources/js/bootstrap.js" type="text/javascript"></script>
        <link href="https://fonts.googleapis.com/css?family=Bebas+Neue&display=swap" rel="stylesheet">
        <link href="https://fonts.googleapis.com/css?family=Oswald&display=swap" rel="stylesheet">

    </head>
    <body background="img/nino.png" style="background-size: cover;">
            <jsp:include  page="/navbar_rojo.jsp" />

        <div class="container">

            <form method="post" action="NinoServlet?action=insertar">
                <center>
                    <label style="color:darkslateblue;font-size:60px;font-family: 'Bebas Neue', cursive;" > Insertar </label>
                </center>

                <div class="row">
                    <div class="col-6">
                        <center> <label style="color:#000000 ;font-size:40px;font-family: 'Bebas Neue', cursive;" >Nombre Niño:</label></center>
                    </div>
                    <div class="col-6">
                        <input name="nombre_nino" type="text" required="true" style="border-radius: 10px;color:#007bff ;font-size:30px;font-family: 'Oswald', sans-serif;background-color: #002752;align-content: ">
                    </div>
                </div>

                <div class="row">
                    <div class="col-6">
                        <center> <label style="color:#000000 ;font-size:40px;font-family: 'Bebas Neue', cursive;" >Apellido Niño:</label></center>
                    </div>
                    <div class="col-6">
                        <input name="apellido_nino" type="text" required="true" style="border-radius: 10px;color:#007bff ;font-size:30px;font-family: 'Oswald', sans-serif;background-color: #002752;align-content: ">
                    </div>
                </div>

                <div class="row">
                    <div class="col-6">
                        <center> <label style="color:#000000 ;font-size:40px;font-family: 'Bebas Neue', cursive;" >Dirección:</label></center>
                    </div>
                    <div class="col-6">
                        <input name="direccion_nino" type="text" required="true" style="border-radius: 10px;color:#007bff ;font-size:30px;font-family: 'Oswald', sans-serif;background-color: #002752;align-content: ">
                    </div>
                </div>

                <div class="row">
                    <div class="col-6">
                        <center> <label style="color:#000000 ;font-size:40px;font-family: 'Bebas Neue', cursive;" >Disponibilidad del Apoderado:</label></center>
                    </div>
                    <div class="col-6">
                        <input name="disponibilidad" type="text" required="true" style="border-radius: 10px;color:#007bff ;font-size:30px;font-family: 'Oswald', sans-serif;background-color: #002752;align-content: ">
                    </div>
                </div>

                <div class="row">

                    <div class="col-6">
                        <center> <label style="color:#000000 ;font-size:40px;font-family: 'Bebas Neue', cursive;" >Padre:</label></center>
                    </div>

                    <div class="col-6">
                        <select style="border-radius: 10px;color:white ;font-size:30px;font-family: 'Oswald', sans-serif;background-color: black;align-content: " name="id_apoderado" >
                            <c:forEach items="${apoderadoDao}" var="apo">
                                <option value="${apo.id_apoderado}" style="background-color: black;color: white">
                                    ${apo.nombre_apoderado}
                                    ${apo.apellido_apoderado}
                                </option>
                            </c:forEach>
                        </select>
                    </div>

                </div>







                <div class="row">
                    <div class="col-12">
                        <button class="btn btn-dark  btn-lg btn-block">Guardar</button>
                    </div>
                </div>

            </form>
        </div> 
    </body>
</html>







---------
--------------
----------------------
----------------------------
---------------------------------
--------------------------------------------------------------------------------------


LOGIN DAO


----------------------------------------------------------------------------------------
------------------------------------
-----------------------------
-----------------------
---------------
-----------


package dao;

import conexion.conexion;
import java.sql.PreparedStatement;
import java.sql.ResultSet;
import java.sql.SQLException;
import java.util.LinkedList;
import java.util.List;
import modelo.UsuariosBean;

public class LoginDao {

    conexion conn = new conexion();
    PreparedStatement ps;
    ResultSet rs;

    public LoginDao(conexion conn) {
        this.conn = conn;
    }

    public boolean consultarUsuario(UsuariosBean usuario) {
        String sql = "select * from usuarios where usuario=? and clave=?";
        try {
            ps = conn.conectar().prepareStatement(sql);
            ps.setString(1, usuario.getUsuario());
            ps.setString(2, usuario.getClave());
            System.out.println("try");
            rs = ps.executeQuery();
            if (rs.next()) {
                System.out.println("if");
                return true;
            }
            return false;
        } catch (SQLException e) {
            System.out.println("Error en Consultar Usuario DAO");
            System.out.println("Error en" + e);
            return false;
        }
    }

    public String consultarRol(UsuariosBean user) {
        String sql = "select rol from usuarios where usuario=? and clave=?";

        try {
            ps = conn.conectar().prepareStatement(sql);
            ps.setString(1, user.getUsuario());
            ps.setString(2, user.getClave());
            rs = ps.executeQuery();
            while (rs.next()) {
                user = new UsuariosBean();
                user.setRol(rs.getString(1));
                System.out.println("imprimir rol " + user.getRol());
            }

            return user.getRol();
        } catch (Exception e) {
            System.out.println("" + e);
            return null;
        }
    }

    public boolean insertar(UsuariosBean usab) {
        try {
            //En el caso de las tablas relacionadas, se ponen los values de la misma forma, el ID de la tabla relacionada, sus campos si tiene, entre estos los ID de las
            //otras tablas que manda a llamar
            String sql = "insert into Usuarios values (?,?,?,?);";
            PreparedStatement ps = conn.conectar().prepareStatement(sql);
            ps.setInt(1, usab.getId_usuario());
            ps.setString(2, usab.getUsuario());
            ps.setString(3, usab.getClave());
            ps.setString(4, usab.getRol());
            ps.executeUpdate();
            return true;
        } catch (SQLException e) {
            System.out.println("Error en DAO Insertar");
            System.out.println("Error en" + e);
            return false;
        }
    }

    public boolean actualizar(UsuariosBean usab) {
        try {
            //En el caso de las tablas relacionadas, se ponen los values de la misma forma, el ID de la tabla relacionada, sus campos si tiene, entre estos los ID de las
            //otras tablas que manda a llamar
            String sql = "update Usuarios set usuario=?, clave=?, rol=? where id_usuario=?;";
            PreparedStatement ps = conn.conectar().prepareStatement(sql);
            ps.setString(1, usab.getUsuario());
            ps.setString(2, usab.getClave());
            ps.setString(3, usab.getRol());
            ps.setInt(4, usab.getId_usuario());
            ps.executeUpdate();
            return true;
        } catch (SQLException e) {
            System.out.println("Error en DAO Actualizar");
            System.out.println("Error en" + e);
            return false;
        }
    }

    public boolean eliminar(int UsuarioBean) {
        try {
            //En el caso de Eliminar no cambia nada
            String sql = "delete from Usuarios where id_usuario=?";
            PreparedStatement ps = conn.conectar().prepareStatement(sql);
            ps.setInt(1, UsuarioBean);
            ps.executeUpdate();
            return true;
        } catch (SQLException e) {
            System.out.println("Error en DAO Eliminar");
            System.out.println("Error en" + e);
            return false;
        }
    }

    public List<UsuariosBean> consultar() {
        try {
            //En el caso de consultar y consultar ID, se tiene que poner la consulta de InnerJoin, y posteriormente colocar todos los valores de impresion
            String sql = "select * from usuarios";
            List<UsuariosBean> lista = new LinkedList();
            PreparedStatement ps = conn.conectar().prepareStatement(sql);
            ResultSet rs = ps.executeQuery();
            while (rs.next()) {
                //Aqui poner todos los valores de impresion, fijandose que el numero de columna sea el correcto.
                UsuariosBean usab = new UsuariosBean(0);
                usab = new UsuariosBean(rs.getInt(1));
                usab.setUsuario(rs.getString(2));
                usab.setClave(rs.getString(3));
                usab.setRol(rs.getString(4));
                lista.add(usab);
            }
            return lista;
        } catch (SQLException e) {
            System.out.println("Error en DAO Consultar");
            System.out.println("Error en" + e);
            return null;
        }
    }

    public List<UsuariosBean> consultarID(UsuariosBean usab) {
        try {
            String sql = "SELECT * FROM tio_juanito.usuarios where id_usuario = ?;";
            List<UsuariosBean> lista = new LinkedList();
            PreparedStatement ps = conn.conectar().prepareStatement(sql);
            //Y aqui se agrega el ID
            ps.setInt(1, usab.getId_usuario());
            ResultSet rs = ps.executeQuery();
            while (rs.next()) {
                usab = new UsuariosBean(rs.getInt(1));
                usab.setUsuario(rs.getString(2));
                usab.setClave(rs.getString(3));
                usab.setRol(rs.getString(4));
                lista.add(usab);
            }
            return lista;
        } catch (SQLException e) {
            System.out.println("Error en DAO ConsultarID");
            System.out.println("Error en" + e);
            return null;
        }
    }

}



---------
--------------
----------------------
----------------------------
---------------------------------
--------------------------------------------------------------------------------------


LOGIN SERVLET


----------------------------------------------------------------------------------------
------------------------------------
-----------------------------
-----------------------
---------------
-----------
package servlet;

import dao.LoginDao;
import conexion.conexion;
import java.io.IOException;
import java.util.List;
import javax.servlet.RequestDispatcher;
import javax.servlet.ServletException;
import javax.servlet.http.HttpServlet;
import javax.servlet.http.HttpServletRequest;
import javax.servlet.http.HttpServletResponse;
import javax.servlet.http.HttpSession;
import modelo.UsuariosBean;

public class LoginServlet extends HttpServlet {

    conexion con;
    LoginDao logDAO;
    UsuariosBean usab;
    RequestDispatcher rd;
    String msg;
    boolean respuesta;

    protected void processRequest(HttpServletRequest request, HttpServletResponse response)
            throws ServletException, IOException {

        String action = request.getParameter("action");
        String registro = request.getParameter("registro");
        switch (action) {
            case "login":
                login(request, response);
                break;
            case "cerrar":
                cerrar(request, response);
                break;
            case "insertar":
                insertar(request, response);
                break;
            case "actualizar":
                actualizar(request, response);
                break;
            case "leer":
                consultar(request, response);
                break;
            case "leerId":
                consultarId(request, response);
                break;
            case "borrar":
                eliminar(request, response);
                break;
            case "nuevo":
                nuevo(request, response);
                break;
            default:
                throw new AssertionError();
        }

    }

    HttpSession session;

    protected void login(HttpServletRequest request, HttpServletResponse response)
            throws ServletException, IOException {

        String usuario = request.getParameter("usuario");
        String clave = request.getParameter("clave");

        conexion conn = new conexion();
        LoginDao login = new LoginDao(conn);

        UsuariosBean user = new UsuariosBean();

        user.setUsuario(usuario);
        user.setClave(clave);
        System.out.println("prueba consultar usuario ");

        if (login.consultarUsuario(user)) {

            user.setUsuario(usuario);
            user.setClave(clave);
            System.out.println("consultar rol");
            if (login.consultarRol(user).equals("admin")) {

                System.out.println("rol consultador");
                session = request.getSession();
                session.setAttribute("usuario", usuario);
                session.setAttribute("rol", "admin");
                response.sendRedirect("admin.jsp");

            } else {
                session = request.getSession();
                session.setAttribute("usuario", usuario);
                session.setAttribute("rol", "cliente");

                response.sendRedirect("usuario.jsp");
            }

        } else {
            String msg = "Usuario o Clave invalida";

            request.setAttribute("msg", msg);
            RequestDispatcher rd = request.getRequestDispatcher("admin.jsp");
            rd.forward(request, response);

        }
    }

    protected void cerrar(HttpServletRequest request, HttpServletResponse response)
            throws ServletException, IOException {
        session = request.getSession();
        session.setAttribute("usuario", null);
        session.setAttribute("rol", null);
        RequestDispatcher rd = request.getRequestDispatcher("index.jsp");
        rd.forward(request, response);
    }

    protected void insertar(HttpServletRequest request, HttpServletResponse response)
            throws ServletException, IOException {
        String usuario = request.getParameter("usuario");
        String clave = request.getParameter("clave");
        String rol = "user";
        UsuariosBean usab = new UsuariosBean(0);
        con = new conexion();
        usab.setUsuario(usuario);
        usab.setClave(clave);
        usab.setRol(rol);
        usab.setId_usuario(0);
        //Aqui llamaremos el Dao
        logDAO = new LoginDao(con);
        //La respuesta sera el campo necesario para
        respuesta = logDAO.insertar(usab);
        if (respuesta) {
            msg = "Datos Insertados";
        } else {
            msg = "Error al Insertar";
        }
        List<UsuariosBean> list = logDAO.consultar();
        request.setAttribute("msg", msg);
        request.setAttribute("list", list);
                rd = request.getRequestDispatcher("/usuarios/insertarusuarios2.jsp");

        rd.forward(request, response);
    }

    protected void actualizar(HttpServletRequest request, HttpServletResponse response)
            throws ServletException, IOException {
        String usuario = request.getParameter("usuario");
        String clave = request.getParameter("clave");
        String rol = "user";
        int id_usuario = Integer.parseInt(String.valueOf(request.getParameter("id_usuario")));
        UsuariosBean chob = new UsuariosBean(0);
        con = new conexion();
        usab.setUsuario(usuario);
        usab.setClave(clave);
        usab.setRol(rol);
        usab.setId_usuario(id_usuario);
        logDAO = new LoginDao(con);
        respuesta = logDAO.actualizar(usab);
        if (respuesta) {
            msg = "Datos Actualizados";
        } else {
            msg = "Error al actualizar";
        }
        List<UsuariosBean> list = logDAO.consultar();
        request.setAttribute("msg", msg);
        request.setAttribute("list", list);
        rd.forward(request, response);
    }

    protected void consultar(HttpServletRequest request, HttpServletResponse response)
            throws ServletException, IOException {
        con = new conexion();
        usab = new UsuariosBean(0);
        logDAO = new LoginDao(con);
        List<UsuariosBean> list = logDAO.consultar();
        request.setAttribute("list", list);
        request.setAttribute("msg", msg);
        rd.forward(request, response);
    }

    protected void consultarId(HttpServletRequest request, HttpServletResponse response)
            throws ServletException, IOException {
        con = new conexion();
        //llamamos ID, y lo parseamos
        int id_usuario = Integer.parseInt(String.valueOf(request.getParameter("id_usuario")));
        //de nuevo llamamos a las demas clases, y de los campos de nuestra tabla solo al ID
        //El ID y el Bean pueden tener el mismo parametro que en este caso le puse "id_..." 
        usab = new UsuariosBean(id_usuario);
        usab.setId_usuario(id_usuario);
        logDAO = new LoginDao(con);
        //De nuevo llamamos a la lista
        List<UsuariosBean> list = logDAO.consultarID(usab);
        request.setAttribute("list", list);
        request.setAttribute("msg", msg);
        rd.forward(request, response);
    }

    protected void eliminar(HttpServletRequest request, HttpServletResponse response)
            throws ServletException, IOException {
        con = new conexion();
        int id_usuario = Integer.parseInt(String.valueOf(request.getParameter("id_usuario")));
        usab = new UsuariosBean(id_usuario);
        logDAO = new LoginDao(con);
        respuesta = logDAO.eliminar(id_usuario);
        if (respuesta) {
            msg = "Datos eliminados";
        } else {
            msg = "Error al eliminar";
        }
        List<UsuariosBean> list = logDAO.consultar();
        request.setAttribute("list", list);
        request.setAttribute("msg", msg);
        rd.forward(request, response);
    }

    protected void nuevo(HttpServletRequest request, HttpServletResponse response)
            throws ServletException, IOException {
        con = new conexion();
        usab = new UsuariosBean(0);
        logDAO = new LoginDao(con);
        List<UsuariosBean> list = logDAO.consultar();
        request.setAttribute("list", list);
        request.setAttribute("msg", msg);
        request.setAttribute("loginDao", logDAO.consultar());
        rd = request.getRequestDispatcher("/usuarios/insertarusuarios.jsp");
        rd.forward(request, response);

    }

    @Override
    protected void doGet(HttpServletRequest request, HttpServletResponse response)
            throws ServletException, IOException {
        processRequest(request, response);
    }

    @Override
    protected void doPost(HttpServletRequest request, HttpServletResponse response)
            throws ServletException, IOException {
        processRequest(request, response);
    }

}















